%YAML 1.1
%TAG !u! tag:unity3d.com,2011:
--- !u!114 &11400000
MonoBehaviour:
  m_ObjectHideFlags: 0
  m_CorrespondingSourceObject: {fileID: 0}
  m_PrefabInternal: {fileID: 0}
  m_GameObject: {fileID: 0}
  m_Enabled: 1
  m_EditorHideFlags: 0
  m_Script: {fileID: 11500000, guid: c11e1f9eb60f6f44093d1bbc39bca432, type: 3}
  m_Name: EditorVisualSettings
  m_EditorClassIdentifier: 
  _objectReferences: []
  _serializedStateKeys:
  - ListEvenColor
  - ListOddColor
  - ListDelimiterColor
  - ExtraItemSpace
  - DelimiterScape
  - TestDictionary
  _serializedStateValues:
  - '{"r":0.2431373,"g":0.2431373,"b":0.2431373,"a":1.0}'
  - '{"r":0.2196079,"g":0.2196079,"b":0.2196079,"a":1.0}'
  - '{"r":0.1607843,"g":0.1607843,"b":0.1607843,"a":1.0}'
  - 3
  - 5
  - '{}'
  TestList:
  - 
  - 
  - 
