%YAML 1.1
%TAG !u! tag:unity3d.com,2011:
--- !u!114 &11400000
MonoBehaviour:
  m_ObjectHideFlags: 0
  m_CorrespondingSourceObject: {fileID: 0}
  m_PrefabInternal: {fileID: 0}
  m_GameObject: {fileID: 0}
  m_Enabled: 1
  m_EditorHideFlags: 0
  m_Script: {fileID: 11500000, guid: 9d43705a875d1d8419793a18ca227549, type: 3}
  m_Name: StatSettings
  m_EditorClassIdentifier: 
  _objectReferences: []
  _serializedStateKeys:
  - Stats
  _serializedStateValues:
  - '[{"Name":"Health","Type":"Health","Min":0.0,"Max":100.0,"InitValue":50.0},{"Name":"Power","Type":"Power","Min":0.0,"Max":100.0,"InitValue":50.0},{"Name":"Moral","Type":"Moral","Min":0.0,"Max":100.0,"InitValue":50.0},{"Name":"Social","Type":"Social","Min":0.0,"Max":100.0,"InitValue":50.0}]'
