%YAML 1.1
%TAG !u! tag:unity3d.com,2011:
--- !u!1045 &1
EditorBuildSettings:
  m_ObjectHideFlags: 0
  serializedVersion: 2
  m_Scenes:
  - enabled: 0
    path: 
    guid: 00000000000000000000000000000000
  - enabled: 1
    path: Assets/Scenes/TwinStick.unity
    guid: 660b90c146f9842478c1e441c256422e
  - enabled: 1
    path: Assets/Scenes/Cards.unity
    guid: 25c5ad33d49efd149b45ba1495d6b6fa
  m_configObjects: {}
